module myapp

go 1.18

require (
	cloud.google.com/go/run v0.8.0
	dagger.io/dagger v0.4.3
	github.com/labstack/echo/v4 v4.10.0
)

require (
	cloud.google.com/go v0.105.0 // indirect
	cloud.google.com/go/compute v1.14.0 // indirect
	cloud.google.com/go/compute/metadata v0.2.3 // indirect
	cloud.google.com/go/iam v0.8.0 // indirect
	cloud.google.com/go/longrunning v0.3.0 // indirect
	github.com/Khan/genqlient v0.5.0 // indirect
	github.com/adrg/xdg v0.4.0 // indirect
	github.com/golang/groupcache v0.0.0-20200121045136-8c9f03a8e57e // indirect
	github.com/golang/protobuf v1.5.2 // indirect
	github.com/google/go-cmp v0.5.9 // indirect
	github.com/googleapis/enterprise-certificate-proxy v0.2.1 // indirect
	github.com/googleapis/gax-go/v2 v2.7.0 // indirect
	github.com/iancoleman/strcase v0.2.0 // indirect
	github.com/labstack/gommon v0.4.0 // indirect
	github.com/mattn/go-colorable v0.1.13 // indirect
	github.com/mattn/go-isatty v0.0.16 // indirect
	github.com/valyala/bytebufferpool v1.0.0 // indirect
	github.com/valyala/fasttemplate v1.2.2 // indirect
	github.com/vektah/gqlparser/v2 v2.5.1 // indirect
	go.opencensus.io v0.24.0 // indirect
	golang.org/x/crypto v0.2.0 // indirect
	golang.org/x/net v0.4.0 // indirect
	golang.org/x/oauth2 v0.0.0-20221014153046-6fdb5e3db783 // indirect
	golang.org/x/sync v0.1.0 // indirect
	golang.org/x/sys v0.3.0 // indirect
	golang.org/x/text v0.5.0 // indirect
	google.golang.org/api v0.108.0 // indirect
	google.golang.org/appengine v1.6.7 // indirect
	google.golang.org/genproto v0.0.0-20230124163310-31e0e69b6fc2 // indirect
	google.golang.org/grpc v1.51.0 // indirect
	google.golang.org/protobuf v1.28.1 // indirect
)
